^C:\USERS\IGOR\DOCUMENTS\VISUAL STUDIO 2013\PROJECTS\DIAGRAMMEMORY\APPLICATION\APPLICATION.CPP|C:\USERS\IGOR\DOCUMENTS\VISUAL STUDIO 2013\PROJECTS\DIAGRAMMEMORY\APPLICATION\STDAFX.CPP
C:\USERS\IGOR\DOCUMENTS\VISUAL STUDIO 2013\PROJECTS\DIAGRAMMEMORY\APPLICATION\DEBUG\VC120.PDB
C:\USERS\IGOR\DOCUMENTS\VISUAL STUDIO 2013\PROJECTS\DIAGRAMMEMORY\APPLICATION\DEBUG\VC120.IDB
C:\USERS\IGOR\DOCUMENTS\VISUAL STUDIO 2013\PROJECTS\DIAGRAMMEMORY\APPLICATION\DEBUG\APPLICATION.OBJ
C:\USERS\IGOR\DOCUMENTS\VISUAL STUDIO 2013\PROJECTS\DIAGRAMMEMORY\APPLICATION\DEBUG\STDAFX.OBJ
^C:\USERS\IGOR\DOCUMENTS\VISUAL STUDIO 2013\PROJECTS\DIAGRAMMEMORY\APPLICATION\APPLICATION.CPP
C:\USERS\IGOR\DOCUMENTS\VISUAL STUDIO 2013\PROJECTS\DIAGRAMMEMORY\APPLICATION\DEBUG\VC120.PDB
C:\USERS\IGOR\DOCUMENTS\VISUAL STUDIO 2013\PROJECTS\DIAGRAMMEMORY\APPLICATION\DEBUG\VC120.IDB
C:\USERS\IGOR\DOCUMENTS\VISUAL STUDIO 2013\PROJECTS\DIAGRAMMEMORY\APPLICATION\DEBUG\APPLICATION.OBJ
^C:\USERS\IGOR\DOCUMENTS\VISUAL STUDIO 2013\PROJECTS\DIAGRAMMEMORY\APPLICATION\STDAFX.CPP
C:\USERS\IGOR\DOCUMENTS\VISUAL STUDIO 2013\PROJECTS\DIAGRAMMEMORY\APPLICATION\DEBUG\VC120.PDB
